<?xml version="1.0" encoding="utf-8"?>
<svg viewBox="0 0 500 500" xmlns="http://www.w3.org/2000/svg">
  <g style="transform-origin: 363.014px 869.953px;" transform="matrix(1.655636072159, 0, 0, 1.655636072159, -168.972888247845, -644.615833516728)">
    <title>House</title>
    <g>
      <title>Body</title>
      <path style="stroke: rgb(0, 0, 0); fill: rgb(231, 122, 121); stroke-width: 0px;" d="M 320.851 859.241 L 323.413 983.339 L 445.978 976.107 L 443.734 853.656 L 320.851 859.241 Z"/>
      <path style="stroke: rgb(0, 0, 0); fill: rgb(255, 151, 157); stroke-width: 0px;" d="M 283.356 983.311 L 323.63 983.379 L 320.999 855.295 L 280.78 855.492 L 283.356 983.311 Z"/>
    </g>
    <g style="transform-origin: 363.014px 804.791px;" transform="matrix(0.999072, -0.04308, 0.04308, 0.999072, 0.000001, 0)">
      <title>Roof</title>
      <path style="stroke: rgb(0, 0, 0); fill: rgb(254, 215, 44); stroke-width: 0px;" d="M 292.72 856.697 L 382.537 750.135 C 391.638 754.686 478.803 861.46 475.22 859.669 C 457.292 861.103 292.72 856.697 292.72 856.697 Z"/>
      <path style="stroke: rgb(0, 0, 0); fill: rgb(255, 230, 67); stroke-width: 0px;" d="M 346.766 749.627 L 382.947 750.123 C 382.947 750.123 296.298 856.697 295.307 856.697 C 294.316 856.697 250.7 855.706 250.7 854.219 C 250.7 852.732 346.766 749.132 346.766 749.627 Z"/>
    </g>
  </g>
  <g transform="matrix(1, 0, 0, 1, 32.48193359375006, 2.6196250915527344)" style="">
    <title>Yarn</title>
    <path style="color: rgb(0, 0, 0); font-style: normal; font-variant: normal; font-weight: normal; font-stretch: normal; font-size: medium; line-height: normal; font-family: sans-serif; font-feature-settings: normal; text-indent: 0px; text-align: start; text-decoration: none solid rgb(0, 0, 0); letter-spacing: normal; word-spacing: normal; text-transform: none; writing-mode: lr-tb; direction: ltr; text-orientation: mixed; dominant-baseline: auto; baseline-shift: baseline; text-anchor: start; white-space: normal; clip-rule: nonzero; display: inline; overflow: visible; opacity: 1; isolation: auto; mix-blend-mode: normal; color-interpolation: srgb; color-interpolation-filters: linearrgb; vector-effect: none; fill: rgb(169, 255, 199); fill-opacity: 1; fill-rule: nonzero; stroke: none; stroke-width: 7.5; stroke-linecap: round; stroke-linejoin: miter; stroke-miterlimit: 4; stroke-dasharray: none; stroke-dashoffset: 0; stroke-opacity: 1; color-rendering: auto; image-rendering: auto; shape-rendering: auto; text-rendering: auto;" d="M 160.444 441.668 C 171.069 439.552 189.006 446.211 208.61 448.018 C 228.215 449.825 250.232 445.62 268.169 420.85 C 270.002 418.392 268.272 414.893 265.206 414.858 C 263.97 414.844 262.806 415.44 262.095 416.452 C 245.57 439.273 227.484 442.226 209.298 440.549 C 191.112 438.873 173.569 431.407 158.98 434.313 C 135.777 438.934 120.635 459.923 74.611 466.489 C 97.055 451.953 106.929 424.148 98.677 398.712 C 90.677 374.091 67.572 357.553 41.687 357.92 C 35.772 358.003 29.903 358.975 24.277 360.803 C -6.736 370.88 -23.708 404.19 -13.631 435.203 C -5.504 460.153 18.101 476.157 44.616 475.947 C 117.234 475.371 137.609 446.216 160.444 441.668 Z" id="path3168"/>
    <path style="color: rgb(0, 0, 0); font-style: normal; font-variant: normal; font-weight: normal; font-stretch: normal; font-size: medium; line-height: normal; font-family: sans-serif; font-feature-settings: normal; text-indent: 0px; text-align: start; text-decoration: none solid rgb(0, 0, 0); letter-spacing: normal; word-spacing: normal; text-transform: none; writing-mode: lr-tb; direction: ltr; text-orientation: mixed; dominant-baseline: auto; baseline-shift: baseline; text-anchor: start; white-space: normal; clip-rule: nonzero; display: inline; overflow: visible; opacity: 1; isolation: auto; mix-blend-mode: normal; color-interpolation: srgb; color-interpolation-filters: linearrgb; vector-effect: none; fill: rgb(108, 242, 156); fill-opacity: 1; fill-rule: nonzero; stroke: none; stroke-width: 1.5; stroke-linecap: butt; stroke-linejoin: miter; stroke-miterlimit: 4; stroke-dasharray: none; stroke-dashoffset: 0; stroke-opacity: 1; color-rendering: auto; image-rendering: auto; shape-rendering: auto; text-rendering: auto;" d="M 42.116 357.927 C 40.706 357.917 39.175 358 37.941 358.094 C 37.941 358.117 37.938 358.137 37.938 358.16 C 44.854 368.761 50.315 380.551 54.172 392.463 C 41.765 381.986 26.932 372.918 11.146 366.966 C 9.864 367.731 8.665 368.548 7.505 369.456 C 25.536 375.909 42.598 386.618 56.085 398.947 L 56.107 398.921 C 57.23 403.012 58.157 407.09 58.89 411.12 C 55.501 412.837 52.04 414.417 48.541 415.861 C 33.927 401.83 14.857 389.573 -5.523 382.692 C -6.28 383.698 -6.958 384.723 -7.59 385.795 C 11.975 392.286 30.542 403.92 44.851 417.324 C 41.546 418.587 38.215 419.729 34.879 420.741 C 31.279 421.833 27.675 422.775 24.097 423.566 C 12.634 414.652 -0.575 406.994 -14.513 401.786 C -14.857 402.957 -15.131 404.133 -15.353 405.33 C -2.956 410.034 8.905 416.72 19.388 424.524 C 6.676 426.879 -5.521 427.276 -15.846 425.659 C -15.69 426.929 -15.466 428.173 -15.192 429.417 C -0.229 431.595 17.898 429.67 35.926 424.202 C 57.663 417.609 79.254 405.808 94.717 389.359 C 94.13 388.243 93.508 387.151 92.854 386.084 C 89.149 389.855 85.555 393.52 81.75 396.438 C 78.631 385.129 74.921 374.048 70.618 365.028 C 68.885 364.09 67.103 363.238 65.278 362.475 C 65.273 362.483 65.269 362.489 65.264 362.497 C 71.37 374.139 75.873 386.664 78.607 398.9 C 73.478 402.768 67.974 406.26 62.24 409.361 C 58.937 391.979 52.128 373.789 42.115 357.927 L 42.116 357.927 Z M 40.939 438.504 C 23.46 443.806 4.249 445.682 -10.072 443.732 C -9.391 445.081 -8.657 446.386 -7.849 447.664 C 6.592 449.184 25.021 446.529 41.987 441.965 C 63.46 436.188 86.482 421.913 100.743 407.132 C 100.501 405.696 100.2 404.261 99.821 402.836 C 84.809 419.614 62.962 431.824 40.939 438.504 Z M 100.785 426.324 C 86.263 439.898 67.213 449.912 48.03 455.731 C 33.308 460.196 17.356 462.232 4.136 461.592 C 5.732 462.939 7.401 464.201 9.133 465.374 C 21.63 465.352 35.897 463.19 49.079 459.192 C 67.119 453.72 85.058 444.661 99.5 432.316 C 100.054 430.33 100.484 428.335 100.785 426.324 Z M 82.947 459.908 C 67.134 469.654 51.358 473.746 35.873 475.421 C 38.739 475.791 41.659 475.97 44.616 475.947 C 46.348 475.933 48.041 475.898 49.714 475.853 C 53.597 475.161 57.558 474.145 60.769 473.112 C 65.664 471.508 70.32 469.284 74.611 466.489 C 77.575 464.559 80.362 462.352 82.947 459.908 Z" id="path1471"/>
  </g>
  <g id="layer1" transform="matrix(1, 0, 0, 1, 24.798950195312557, 310.20062255859375)" style="">
    <title>Kitten, sleeping</title>
    <path style="opacity:1;fill:#d7d3cd;fill-opacity:1;stroke:none;stroke-width:1.00000012px;stroke-linecap:butt;stroke-linejoin:miter;stroke-opacity:1" d="M 995.313 556.061 C 993.807 556.047 992.175 556.198 990.422 556.506 C 946.458 564.225 828.226 670.237 793.41 736.336 C 739.694 737.646 687.713 747.752 640.723 765.012 C 584.298 716.048 435.659 660.153 391.891 668.91 C 389.564 669.376 387.538 670.021 385.834 670.863 C 352.257 687.449 342.934 890.232 383.012 1046.344 C 385.398 1075.768 372.766 1136.084 391.977 1133.516 C 388.82 1151.513 362.142 1169.792 339.068 1178.336 C 354.652 1214.933 394.288 1269.767 463.33 1312.352 C 427.818 1333.298 424.948 1389.947 463.836 1418.201 C 511.689 1452.969 572.633 1474.553 644.027 1474.553 C 722.045 1474.553 769.481 1429.622 756.658 1373.477 C 780.649 1371.505 805.78 1368.146 832.098 1363.203 C 833.473 1362.945 834.833 1362.678 836.199 1362.414 C 816.515 1423.344 871.594 1473.973 954.412 1473.973 C 1045.506 1473.973 1081.279 1386.249 1169.986 1397.959 C 1228.147 1405.637 1292.401 1406.968 1356.656 1398.027 C 1460.048 1434.523 1631.53 1431.829 1700.723 1349.539 C 1782.474 1252.313 1734.291 1084.062 1627.301 1046.037 C 1585.132 958.468 1499.197 880.084 1400.039 846.224 C 1357.508 830.132 1307.707 822.294 1255.187 822.562 C 1212.631 822.78 1168.291 828.327 1124.588 839.109 C 1094.877 698.07 1029.03 558.961 996.775 556.131 C 996.302 556.089 995.814 556.065 995.312 556.06 L 995.313 556.061 Z M 471.766 1308.307 C 471.537 1308.394 471.311 1308.483 471.084 1308.572 C 471.311 1308.482 471.537 1308.394 471.766 1308.307 Z M 468.803 1309.529 C 468.728 1309.562 468.652 1309.593 468.578 1309.627 C 468.652 1309.593 468.728 1309.563 468.803 1309.529 Z" transform="matrix(0.26458333,0,0,0.26458333,0,-232.16668)" id="path2728"/>
    <path style="display:inline;opacity:1;fill:#e8e7e4;fill-opacity:1;stroke:none;stroke-width:18.89763832;stroke-linecap:round;stroke-linejoin:round;stroke-miterlimit:4;stroke-dasharray:none;stroke-dashoffset:10.01574802;stroke-opacity:1;paint-order:normal" d="M 995.313 556.061 C 993.807 556.047 992.175 556.198 990.422 556.506 C 946.458 564.225 828.226 670.237 793.41 736.336 C 739.694 737.646 687.713 747.752 640.723 765.012 C 584.298 716.048 435.659 660.153 391.891 668.91 C 389.564 669.376 387.538 670.021 385.834 670.863 C 352.257 687.449 342.934 890.232 383.012 1046.344 C 385.398 1075.768 362.142 1169.792 339.068 1178.336 C 354.652 1214.933 394.288 1269.767 463.33 1312.352 C 466.723 1310.351 470.406 1308.668 474.387 1307.375 C 495 1300.677 552.636 1287.167 610.18 1287.037 C 660.953 1286.923 711.654 1297.227 736.787 1331.82 C 747.118 1346.04 753.598 1360.076 756.658 1373.477 C 780.649 1371.505 805.78 1368.146 832.098 1363.203 C 833.473 1362.945 834.833 1362.678 836.199 1362.414 C 839.484 1352.246 844.842 1341.792 852.51 1331.238 C 886.021 1285.114 979.171 1276.706 1044.32 1276.887 C 1048.143 1276.898 1051.835 1276.944 1055.447 1277.008 C 1184.731 1190.807 1222.586 1072.102 1224.465 1012.061 C 1199.863 1012.47 1144.313 934.067 1135.629 905.004 C 1116.339 744.988 1034.082 559.404 996.775 556.131 C 996.302 556.089 995.814 556.065 995.312 556.061 L 995.313 556.061 Z M 1626.453 1045.732 C 1637.612 1064.821 1648.423 1094.872 1651.098 1120.316 C 1660.879 1213.377 1560.819 1248.561 1419.215 1174.16 C 1277.61 1099.757 1188.007 1250.027 1289.338 1358.803 C 1355.418 1429.738 1612.057 1454.989 1700.723 1349.539 C 1782.69 1252.056 1734.038 1083.166 1626.453 1045.732 Z" transform="matrix(0.26458333,0,0,0.26458333,0,-232.16668)" id="path1196"/>
    <path id="path1198" d="m 136.55794,64.918449 c -0.6841,0.0829 -1.09511,0.740027 -0.89726,1.570659 2.70844,11.369181 14.18318,18.516235 25.96232,16.31874 11.78221,-2.217661 19.797,-13.032882 18.29011,-24.629251 -0.19754,-1.51721 -2.09949,-1.526508 -2.8183,0.529269 -2.64101,7.552692 -9.22874,13.166611 -17.24054,14.681731 -8.00657,1.481848 -16.15057,-1.375459 -21.36163,-7.432325 -0.7058,-0.820363 -1.40258,-1.103243 -1.9347,-1.038823 z M 235.38033,46.58657 c -0.68393,0.08286 -1.09437,0.739887 -0.89639,1.570494 2.70844,11.369181 14.18401,18.516079 25.96315,16.318584 11.78208,-2.217637 19.79617,-13.032726 18.28927,-24.629095 -0.19753,-1.51721 -2.09948,-1.526508 -2.81829,0.529269 -2.64083,7.552659 -9.22791,13.166455 -17.2397,14.681574 -8.00653,1.481841 -16.15141,-1.375302 -21.36247,-7.432168 -0.70597,-0.82033 -1.40346,-1.103078 -1.93557,-1.038658 z m 94.5301,-9.761566 c -11.89159,3.507663 -22.97686,9.406219 -34.81749,17.403334 -1.92501,1.245081 0.0133,4.113442 1.88661,2.791909 11.62796,-7.853505 22.50084,-13.272273 33.83442,-16.95922 2.60978,-0.84897 1.80055,-4.033637 -0.90354,-3.236023 z M 87.239099,85.803825 c 11.907546,-0.499278 23.993611,0.429439 37.678581,3.529229 2.19139,0.497244 2.93722,-2.789937 0.74587,-3.287145 -13.93525,-3.156505 -26.403353,-4.610019 -38.701033,-3.596756 -1.974451,0.162683 -1.598194,3.433286 0.276582,3.354672 z M 299.62025,65.945224 c -2.20309,0.62575 -1.25097,3.881585 0.94559,3.233432 13.81303,-4.075803 30.17619,-6.614719 44.8198,-6.539224 2.32258,0.01198 2.32193,-3.312381 -2e-5,-3.367653 -13.72464,-0.326759 -31.18606,2.532375 -45.76537,6.673445 z M 80.626464,108.99289 c -2.161118,0.81034 -0.921827,3.9844 1.225226,3.13757 13.622732,-5.37311 29.78533,-8.95321 44.13594,-10.16648 2.28223,-0.19295 1.98566,-3.59802 -0.29193,-3.356187 -15.39385,1.634447 -31.571361,5.323967 -45.069236,10.385097 z" style="display:inline;opacity:1;fill:#323232;fill-opacity:1;fill-rule:nonzero;stroke:none;stroke-width:93.29627228;stroke-linecap:round;stroke-linejoin:round;stroke-miterlimit:4;stroke-dasharray:none;stroke-dashoffset:0;stroke-opacity:1;paint-order:normal"/>
    <path style="display:inline;fill:#f9a6af;fill-opacity:1;stroke:none;stroke-width:10.09224987;stroke-linecap:butt;stroke-linejoin:miter;stroke-miterlimit:4;stroke-dasharray:none;stroke-opacity:1" d="m 108.32826,-33.108688 c -0.28945,0.06876 -0.55885,0.176717 -0.80595,0.325846 -5.65169,3.410914 -5.02735,35.4756868 1.19633,55.54969 5.80095,-11.699398 14.29557,-22.37177541 24.75645,-31.3716173 -6.36719,-12.3545657 -19.11131,-25.3726647 -24.8508,-24.5595127 -0.10018,0.01419 -0.19955,0.03268 -0.29603,0.05559 z m 157.10972,-29.504871 c -5.64345,1.324541 -12.79614,18.079219 -14.24744,31.90208 13.01346,4.59141 24.80109,11.454824 34.45136,20.252517 -1.48322,-20.964253 -12.53453,-51.070863 -19.03864,-52.198942 -0.37915,-0.06575 -0.76849,-0.04881 -1.16528,0.04434 z M 207.77439,63.299647 c -5.3981,1.031079 -10.21786,4.425214 -9.859,6.336086 0.35885,1.910854 7.58311,7.707865 12.32586,6.799667 4.7426,-0.908115 9.58066,-9.280358 9.25916,-10.992351 -0.32151,-1.711997 -6.3281,-3.174485 -11.72602,-2.143402 z" id="path1200"/>
  </g>
</svg>